{
	"info": {
		"_postman_id": "3bf964fe-3729-4b5f-bf3a-da302b6e77f8",
		"name": "MIcros - Exam trainning 2022",
		"schema": "https://schema.getpostman.com/json/collection/v2.1.0/collection.json"
	},
	"item": [
		{
			"name": "micros - Exam trainning - JARG",
			"item": [
				{
					"name": "POST alta usuario",
					"request": {
						"method": "POST",
						"header": [],
						"body": {
							"mode": "raw",
							"raw": "{\t\n    \"id\": \"4\",\n\t\"nombre\":\"Yolanda\",\n    \"apPaterno\":\"González\",\n    \"apMaterno\":\"Vega\",\n    \"username\":\"yola\",\n    \"password\":\"1234\",\n    \"fechaNacimiento\":\"31/07/1957\",\n    \"sexo\":\"F\",\n    \"correo\":\"yola@correo.com.mx\"\n}",
							"options": {
								"raw": {
									"language": "json"
								}
							}
						},
						"url": {
							"raw": "localhost:8081/usuarios/alta",
							"host": [
								"localhost"
							],
							"port": "8081",
							"path": [
								"usuarios",
								"alta"
							]
						}
					},
					"response": []
				},
				{
					"name": "GET all users",
					"request": {
						"method": "GET",
						"header": [],
						"url": {
							"raw": "localhost:8081/usuarios/lista",
							"host": [
								"localhost"
							],
							"port": "8081",
							"path": [
								"usuarios",
								"lista"
							]
						}
					},
					"response": []
				},
				{
					"name": "GET user by ID",
					"request": {
						"method": "GET",
						"header": [],
						"url": {
							"raw": "localhost:8081/usuarios/3",
							"host": [
								"localhost"
							],
							"port": "8081",
							"path": [
								"usuarios",
								"3"
							]
						}
					},
					"response": []
				},
				{
					"name": "GET paga por posteos",
					"protocolProfileBehavior": {
						"disableBodyPruning": true
					},
					"request": {
						"method": "GET",
						"header": [],
						"body": {
							"mode": "raw",
							"raw": ""
						},
						"url": {
							"raw": "http://localhost:8082/pagos/1?posteos=4",
							"protocol": "http",
							"host": [
								"localhost"
							],
							"port": "8082",
							"path": [
								"pagos",
								"1"
							],
							"query": [
								{
									"key": "posteos",
									"value": "4"
								}
							]
						}
					},
					"response": []
				},
				{
					"name": "GET publicaciones",
					"request": {
						"method": "GET",
						"header": [],
						"url": {
							"raw": "http://localhost:8083/publicaciones/todas",
							"protocol": "http",
							"host": [
								"localhost"
							],
							"port": "8083",
							"path": [
								"publicaciones",
								"todas"
							]
						}
					},
					"response": []
				},
				{
					"name": "GET posts por id",
					"request": {
						"method": "GET",
						"header": [],
						"url": {
							"raw": "http://localhost:8083/publicaciones/post/1",
							"protocol": "http",
							"host": [
								"localhost"
							],
							"port": "8083",
							"path": [
								"publicaciones",
								"post",
								"1"
							]
						}
					},
					"response": []
				},
				{
					"name": "SEND TO SOCIAL QUEUE",
					"request": {
						"method": "GET",
						"header": [],
						"url": {
							"raw": "localhost:8081/usuarios/sendSocialQueue",
							"host": [
								"localhost"
							],
							"port": "8081",
							"path": [
								"usuarios",
								"sendSocialQueue"
							]
						}
					},
					"response": []
				}
			]
		}
	]
}